.............
----------------------------------------------------------------------
Ran 13 tests in 1.734s

OK
Name             Stmts   Miss Branch BrPart  Cover   Missing
------------------------------------------------------------
Collatz.py          26      0     10      0   100%
TestCollatz.py      60      0      0      0   100%
------------------------------------------------------------
TOTAL               86      0     10      0   100%
