1 10 20
100 200 125
201 210 89
900 1000 174
10 1 20
200 100 125
210 201 89
1 1 1
2 2 2
3 3 8
4 4 3
5 5 6
6 6 9
7 7 17
8 8 4
9 9 20
5061 2847 238
5003 6833 262
6098 7952 262
1519 763 182
4074 5826 236
597 6125 238
3096 3617 199
7373 3609 262
1653 3197 217
3143 6774 262
2165 2584 209
4729 6295 262
1184 1788 180
4858 4735 197
2843 4144 238
7407 5265 262
3893 4259 202
4111 3619 238
2877 4194 238
6415 6929 244
345 1651 182
4474 5267 210
1171 6375 262
7002 2895 262
69 379 144
2810 7086 262
2020 2607 209
5655 1940 238
7527 3603 262
5507 4434 210
5435 5369 161
746 6832 262
4319 6445 262
7823 383 262
3561 6110 238
4835 161 238
1186 1803 180
2041 2699 209
7506 7987 252
6751 3094 262
7660 4348 262
6511 7994 257
2153 5285 238
3686 3573 163
839 178 171
78 4577 238
4206 2645 238
3435 93 217
6535 7935 257
5424 4366 215
7721 3810 262
2915 3841 238
6661 5007 262
6685 6021 262
1570 6346 262
1960 7125 262
6601 1851 262
865 260 171
1144 7847 262
1281 7658 262
7022 4054 262
706 1061 179
3150 6203 262
526 1410 182
979 60 179
7024 2042 262
5754 232 238
5376 2221 238
3873 4931 215
7213 3753 262
7162 1646 262
3818 5047 215
6251 1493 262
6629 6539 244
1763 6178 262
3400 4638 238
782 4202 238
5620 4594 236
7444 4698 262
7971 2609 262
2670 2404 209
3022 3404 199
7796 3845 262
7517 5801 262
1931 3715 238
268 2140 182
4946 2305 238
5196 3954 215
7946 6793 257
3497 7443 262
7866 1537 262
7578 1451 262
1477 9 182
4764 5288 210
1116 5578 238
144 7742 262
7155 6220 257
330 2017 182
873 7558 262
2361 5187 238
1056 4993 238
4405 2332 238
6649 1553 262
3344 609 217
7840 1213 262
3982 3898 189
6011 5902 187
1783 4003 238
7837 3233 262
5093 2528 238
5617 7794 262
5307 4712 210
6626 1887 262
1 10001 262
